%YAML 1.1
%TAG !u! tag:unity3d.com,2011:
--- !u!21 &2100000
Material:
  serializedVersion: 5
  m_ObjectHideFlags: 0
  m_PrefabParentObject: {fileID: 0}
  m_PrefabInternal: {fileID: 0}
  m_Name: rocketTurretTexture04
  m_Shader: {fileID: 10, guid: 0000000000000000f000000000000000, type: 0}
  m_ShaderKeywords: 
  m_LightmapFlags: 5
  m_CustomRenderQueue: -1
  m_SavedProperties:
    serializedVersion: 2
    m_TexEnvs:
      data:
        first:
          name: _MainTex
        second:
          m_Texture: {fileID: 2800000, guid: fb62b3f3fd4f62c4d8d6a8ae321ab3a5, type: 3}
          m_Scale: {x: 1, y: 1}
          m_Offset: {x: 0, y: 0}
      data:
        first:
          name: _Illum
        second:
          m_Texture: {fileID: 2800000, guid: fb62b3f3fd4f62c4d8d6a8ae321ab3a5, type: 3}
          m_Scale: {x: 1, y: 1}
          m_Offset: {x: 0, y: 0}
    m_Floats:
      data:
        first:
          name: _EmissionLM
        second: 0
    m_Colors:
      data:
        first:
          name: _Color
        second: {r: .588235319, g: .588235319, b: .588235319, a: 1}
